3 Variable Classification and R – Design of Experimental Studies and Statistics Applied to Nutrigenomics
…
## Seleccionar la variable Diabetes_012
datos %>% select(Diabetes_012)

# A tibble: 253,680 × 1
   Diabetes_012
          <dbl>
 1            0
 2            0
 3            0
 4            0
 5            0
 6            0
 7            0
 8            0
 9            2
10            0
# ℹ 253,670 more rows

# Seleccionar la variable Diabetes_012 y edad
datos %>% select(Diabetes_012, Age)

# A tibble: 253,680 × 2
   Diabetes_012   Age
          <dbl> <dbl>
 1            0     9
 2            0     7
 3            0     9
 4            0    11
 5            0    11
 6            0    10
 7            0     9
 8            0    11
 9            2     9
10            0     8
# ℹ 253,670 more rows

## Filtrar las personas con de sexo femenino

datos %>% filter(Sex==1)

# A tibble: 111,706 × 32
   Diabetes_012 HighBP HighChol CholCheck   BMI Smoker Stroke
          <dbl>  <dbl>    <dbl>     <dbl> <dbl>  <dbl>  <dbl>
 1            0      1        1         1    25      1      0
 2            0      0        0         1    24      0      0
 3            2      0        0         1    25      1      0
 4            2      0        0         1    23      1      0
 5            0      0        1         1    28      0      0
 6            0      0        0         1    28      1      0
 7            2      1        1         1    37      1      1
 8            2      1        1         1    28      1      0
 9            0      0        1         1    31      1      0
10            0      1        0         1    33      1      0
# ℹ 111,696 more rows
# ℹ 25 more variables: HeartDiseaseorAttack <dbl>, PhysActivity <dbl>,
#   Fruits <dbl>, Veggies <dbl>, HvyAlcoholConsump <dbl>, AnyHealthcare <dbl>,
#   NoDocbcCost <dbl>, GenHlth <dbl>, MentHlth <dbl>, PhysHlth <dbl>,
#   DiffWalk <dbl>, Sex <dbl>, Age <dbl>, Education <dbl>, Income <dbl>,
#   Inflammatory_Index <dbl>, Insulin_Resistance_Score <dbl>,
#   Oxidative_Stress <dbl>, Antioxidant_Intake <dbl>, …
…
## Ordenar la base por BMI
## Notar que el menor BMI es de 12

datos %>% arrange(BMI)

# A tibble: 253,680 × 32
   Diabetes_012 HighBP HighChol CholCheck   BMI Smoker Stroke
          <dbl>  <dbl>    <dbl>     <dbl> <dbl>  <dbl>  <dbl>
 1            0      0        0         1    12      0      0
 2            0      0        0         1    12      1      0
 3            0      0        0         1    12      0      0
 4            0      0        1         1    12      1      0
 5            0      0        0         1    12      1      0
 6            0      0        0         1    12      0      0
 7            1      1        1         1    13      1      0
 8            0      0        0         1    13      1      0
 9            0      0        1         1    13      1      0
10            0      1        1         1    13      1      0
# ℹ 253,670 more rows
# ℹ 25 more variables: HeartDiseaseorAttack <dbl>, PhysActivity <dbl>,
#   Fruits <dbl>, Veggies <dbl>, HvyAlcoholConsump <dbl>, AnyHealthcare <dbl>,
#   NoDocbcCost <dbl>, GenHlth <dbl>, MentHlth <dbl>, PhysHlth <dbl>,
#   DiffWalk <dbl>, Sex <dbl>, Age <dbl>, Education <dbl>, Income <dbl>,
#   Inflammatory_Index <dbl>, Insulin_Resistance_Score <dbl>,
#   Oxidative_Stress <dbl>, Antioxidant_Intake <dbl>, …

## Ordenar por BMI y luego por ingreso

datos %>% arrange(BMI, Income)

# A tibble: 253,680 × 32
   Diabetes_012 HighBP HighChol CholCheck   BMI Smoker Stroke
          <dbl>  <dbl>    <dbl>     <dbl> <dbl>  <dbl>  <dbl>
 1            0      0        0         1    12      0      0
 2            0      0        1         1    12      1      0
 3            0      0        0         1    12      0      0
 4            0      0        0         1    12      1      0
 5            0      0        0         1    12      0      0
 6            0      0        0         1    12      1      0
 7            1      1        1         1    13      1      0
 8            0      0        0         1    13      0      0
 9            0      0        0         1    13      1      0
10            0      0        0         1    13      0      0
# ℹ 253,670 more rows
# ℹ 25 more variables: HeartDiseaseorAttack <dbl>, PhysActivity <dbl>,
#   Fruits <dbl>, Veggies <dbl>, HvyAlcoholConsump <dbl>, AnyHealthcare <dbl>,
#   NoDocbcCost <dbl>, GenHlth <dbl>, MentHlth <dbl>, PhysHlth <dbl>,
#   DiffWalk <dbl>, Sex <dbl>, Age <dbl>, Education <dbl>, Income <dbl>,
#   Inflammatory_Index <dbl>, Insulin_Resistance_Score <dbl>,
#   Oxidative_Stress <dbl>, Antioxidant_Intake <dbl>, …
…
[1] "Bingo"

## Comparación sobre un vector

x = c(1,2,3,6,7,4,3,2,900)

ifelse(x<5, "Bingo", "Next")

[1] "Bingo" "Bingo" "Bingo" "Next"  "Next"  "Bingo" "Bingo" "Bingo" "Next" 

### Sobre toda una variable

datos %>% mutate(ComeVegetales = ifelse(Veggies==0, "No come vegetales", "Sí come vegetales"))

# A tibble: 253,680 × 33
   Diabetes_012 HighBP HighChol CholCheck   BMI Smoker Stroke
          <dbl>  <dbl>    <dbl>     <dbl> <dbl>  <dbl>  <dbl>
 1            0      1        1         1    40      1      0
 2            0      0        0         0    25      1      0
 3            0      1        1         1    28      0      0
 4            0      1        0         1    27      0      0
 5            0      1        1         1    24      0      0
 6            0      1        1         1    25      1      0
 7            0      1        0         1    30      1      0
 8            0      1        1         1    25      1      0
 9            2      1        1         1    30      1      0
10            0      0        0         1    24      0      0
# ℹ 253,670 more rows
# ℹ 26 more variables: HeartDiseaseorAttack <dbl>, PhysActivity <dbl>,
#   Fruits <dbl>, Veggies <dbl>, HvyAlcoholConsump <dbl>, AnyHealthcare <dbl>,
#   NoDocbcCost <dbl>, GenHlth <dbl>, MentHlth <dbl>, PhysHlth <dbl>,
#   DiffWalk <dbl>, Sex <dbl>, Age <dbl>, Education <dbl>, Income <dbl>,
#   Inflammatory_Index <dbl>, Insulin_Resistance_Score <dbl>,
#   Oxidative_Stress <dbl>, Antioxidant_Intake <dbl>, …
…
